Flow report for sigma_delta
Tue Dec 12 00:14:15 2023
Quartus II 64-Bit Version 9.1 Build 222 10/21/2009 SJ Full Version


---------------------
; Table of Contents ;
---------------------
  1. Legal Notice
  2. Flow Summary
  3. Flow Settings
  4. Flow Non-Default Global Settings
  5. Flow Elapsed Time
  6. Flow OS Summary
  7. Flow Log



----------------
; Legal Notice ;
----------------
Copyright (C) 1991-2009 Altera Corporation
Your use of Altera Corporation's design tools, logic functions 
and other software and tools, and its AMPP partner logic 
functions, and any output files from any of the foregoing 
(including device programming or simulation files), and any 
associated documentation or information are expressly subject 
to the terms and conditions of the Altera Program License 
Subscription Agreement, Altera MegaCore Function License 
Agreement, or other applicable license agreement, including, 
without limitation, that your use is for the sole purpose of 
programming logic devices manufactured by Altera and sold by 
Altera or its authorized distributors.  Please refer to the 
applicable agreement for further details.



+--------------------------------------------------------------------------+
; Flow Summary                                                             ;
+-------------------------------+------------------------------------------+
; Flow Status                   ; Successful - Tue Dec 12 00:14:15 2023    ;
; Quartus II 64-Bit Version     ; 9.1 Build 222 10/21/2009 SJ Full Version ;
; Revision Name                 ; sigma_delta                              ;
; Top-level Entity Name         ; sigma_delta                              ;
; Family                        ; Stratix II                               ;
; Device                        ; EP2S60F1020C5                            ;
; Timing Models                 ; Final                                    ;
; Met timing requirements       ; No                                       ;
; Logic utilization             ; 10 %                                     ;
;     Combinational ALUTs       ; 3,067 / 48,352 ( 6 % )                   ;
;     Dedicated logic registers ; 3,883 / 48,352 ( 8 % )                   ;
; Total registers               ; 3915                                     ;
; Total pins                    ; 475 / 719 ( 66 % )                       ;
; Total virtual pins            ; 0                                        ;
; Total block memory bits       ; 21,632 / 2,544,192 ( < 1 % )             ;
; DSP block 9-bit elements      ; 0 / 288 ( 0 % )                          ;
; Total PLLs                    ; 1 / 12 ( 8 % )                           ;
; Total DLLs                    ; 0 / 2 ( 0 % )                            ;
+-------------------------------+------------------------------------------+


+-----------------------------------------+
; Flow Settings                           ;
+-------------------+---------------------+
; Option            ; Setting             ;
+-------------------+---------------------+
; Start date & time ; 12/12/2023 00:12:46 ;
; Main task         ; Compilation         ;
; Revision Name     ; sigma_delta         ;
+-------------------+---------------------+


+-------------------------------------------------------------------------------------------------------------------------------------------------------------------------------------------------------------------------------------------------------------------------------------------------------------------------------------------+
; Flow Non-Default Global Settings                                                                                                                                                                                                                                                                                                          ;
+---------------------------------------------------+---------------------------------------------------------------------------------------------------------------------------------------------------------------------------------------------------------+--------------------------------+-------------+------------------------------+
; Assignment Name                                   ; Value                                                                                                                                                                                                   ; Default Value                  ; Entity Name ; Section Id                   ;
+---------------------------------------------------+---------------------------------------------------------------------------------------------------------------------------------------------------------------------------------------------------------+--------------------------------+-------------+------------------------------+
; ACLK_CAT                                          ; Off                                                                                                                                                                                                     ; On                             ; --          ; --                           ;
; ACLK_RULE_IMSZER_ADOMAIN                          ; Off                                                                                                                                                                                                     ; On                             ; --          ; --                           ;
; ACLK_RULE_NO_SZER_ACLK_DOMAIN                     ; Off                                                                                                                                                                                                     ; On                             ; --          ; --                           ;
; ACLK_RULE_SZER_BTW_ACLK_DOMAIN                    ; Off                                                                                                                                                                                                     ; On                             ; --          ; --                           ;
; ADV_NETLIST_OPT_SYNTH_GATE_RETIME                 ; On                                                                                                                                                                                                      ; Off                            ; --          ; --                           ;
; ADV_NETLIST_OPT_SYNTH_WYSIWYG_REMAP               ; On                                                                                                                                                                                                      ; Off                            ; --          ; --                           ;
; APEX20K_OPTIMIZATION_TECHNIQUE                    ; Speed                                                                                                                                                                                                   ; Balanced                       ; --          ; --                           ;
; ASSG_CAT                                          ; Off                                                                                                                                                                                                     ; On                             ; --          ; --                           ;
; ASSG_RULE_MISSING_FMAX                            ; Off                                                                                                                                                                                                     ; On                             ; --          ; --                           ;
; ASSG_RULE_MISSING_TIMING                          ; Off                                                                                                                                                                                                     ; On                             ; --          ; --                           ;
; AUTO_ENABLE_SMART_COMPILE                         ; On                                                                                                                                                                                                      ; --                             ; --          ; --                           ;
; AUTO_GLOBAL_MEMORY_CONTROLS                       ; On                                                                                                                                                                                                      ; Off                            ; --          ; --                           ;
; AUTO_PACKED_REGISTERS                             ; Normal                                                                                                                                                                                                  ; Off                            ; --          ; --                           ;
; AUTO_PACKED_REGISTERS_CYCLONE                     ; Normal                                                                                                                                                                                                  ; Auto                           ; --          ; --                           ;
; AUTO_PACKED_REGISTERS_MAXII                       ; Normal                                                                                                                                                                                                  ; Auto                           ; --          ; --                           ;
; AUTO_PACKED_REGISTERS_STRATIX                     ; Normal                                                                                                                                                                                                  ; Auto                           ; --          ; --                           ;
; AUTO_PACKED_REGISTERS_STRATIXII                   ; Normal                                                                                                                                                                                                  ; Auto                           ; --          ; --                           ;
; AUTO_RAM_RECOGNITION                              ; Off                                                                                                                                                                                                     ; On                             ; --          ; --                           ;
; AUTO_SHIFT_REGISTER_RECOGNITION                   ; Off                                                                                                                                                                                                     ; Auto                           ; --          ; --                           ;
; CLK_CAT                                           ; Off                                                                                                                                                                                                     ; On                             ; --          ; --                           ;
; CLK_RULE_CLKNET_CLKSPINES                         ; Off                                                                                                                                                                                                     ; On                             ; --          ; --                           ;
; CLK_RULE_COMB_CLOCK                               ; Off                                                                                                                                                                                                     ; On                             ; --          ; --                           ;
; CLK_RULE_INPINS_CLKNET                            ; Off                                                                                                                                                                                                     ; On                             ; --          ; --                           ;
; CLK_RULE_INV_CLOCK                                ; Off                                                                                                                                                                                                     ; On                             ; --          ; --                           ;
; CLK_RULE_MIX_EDGES                                ; Off                                                                                                                                                                                                     ; On                             ; --          ; --                           ;
; COMPILER_SIGNATURE_ID                             ; 5311881733727.170236156664408                                                                                                                                                                           ; --                             ; --          ; --                           ;
; CYCLONE_OPTIMIZATION_TECHNIQUE                    ; Area                                                                                                                                                                                                    ; Balanced                       ; --          ; --                           ;
; DO_MIN_ANALYSIS                                   ; On                                                                                                                                                                                                      ; Off                            ; --          ; --                           ;
; EDA_BOARD_DESIGN_SIGNAL_INTEGRITY_TOOL            ; IBIS (Signal Integrity)                                                                                                                                                                                 ; <None>                         ; --          ; --                           ;
; ENABLE_CLOCK_LATENCY                              ; On                                                                                                                                                                                                      ; Off                            ; --          ; --                           ;
; ENABLE_DRC_SETTINGS                               ; On                                                                                                                                                                                                      ; Off                            ; --          ; --                           ;
; ENABLE_SIGNALTAP                                  ; On                                                                                                                                                                                                      ; --                             ; --          ; --                           ;
; FITTER_EFFORT                                     ; Standard Fit                                                                                                                                                                                            ; Auto Fit                       ; --          ; --                           ;
; HCPY_VREF_PINS                                    ; Off                                                                                                                                                                                                     ; On                             ; --          ; --                           ;
; IGNORE_CARRY_BUFFERS                              ; On                                                                                                                                                                                                      ; Off                            ; --          ; --                           ;
; IGNORE_CASCADE_BUFFERS                            ; On                                                                                                                                                                                                      ; Off                            ; --          ; --                           ;
; IGNORE_LCELL_BUFFERS                              ; On                                                                                                                                                                                                      ; Off                            ; --          ; --                           ;
; INCLUDE_EXTERNAL_PIN_DELAYS_IN_FMAX_CALCULATIONS  ; Off                                                                                                                                                                                                     ; --                             ; --          ; --                           ;
; INCREMENTAL_COMPILATION                           ; FULL_INCREMENTAL_COMPILATION                                                                                                                                                                            ; Off                            ; --          ; --                           ;
; IP_TOOL_NAME                                      ; LPM_COUNTER                                                                                                                                                                                             ; --                             ; --          ; --                           ;
; IP_TOOL_NAME                                      ; ALTPLL                                                                                                                                                                                                  ; --                             ; --          ; --                           ;
; IP_TOOL_NAME                                      ; LPM_COUNTER                                                                                                                                                                                             ; --                             ; --          ; --                           ;
; IP_TOOL_NAME                                      ; LPM_COMPARE                                                                                                                                                                                             ; --                             ; --          ; --                           ;
; IP_TOOL_NAME                                      ; LPM_MUX                                                                                                                                                                                                 ; --                             ; --          ; --                           ;
; IP_TOOL_NAME                                      ; LPM_OR                                                                                                                                                                                                  ; --                             ; --          ; --                           ;
; IP_TOOL_NAME                                      ; LPM_MUX                                                                                                                                                                                                 ; --                             ; --          ; --                           ;
; IP_TOOL_NAME                                      ; LPM_MUX                                                                                                                                                                                                 ; --                             ; --          ; --                           ;
; IP_TOOL_NAME                                      ; LPM_FIFO+                                                                                                                                                                                               ; --                             ; --          ; --                           ;
; IP_TOOL_VERSION                                   ; 8.0                                                                                                                                                                                                     ; --                             ; --          ; --                           ;
; IP_TOOL_VERSION                                   ; 8.0                                                                                                                                                                                                     ; --                             ; --          ; --                           ;
; IP_TOOL_VERSION                                   ; 8.0                                                                                                                                                                                                     ; --                             ; --          ; --                           ;
; IP_TOOL_VERSION                                   ; 8.0                                                                                                                                                                                                     ; --                             ; --          ; --                           ;
; IP_TOOL_VERSION                                   ; 9.1                                                                                                                                                                                                     ; --                             ; --          ; --                           ;
; IP_TOOL_VERSION                                   ; 9.1                                                                                                                                                                                                     ; --                             ; --          ; --                           ;
; IP_TOOL_VERSION                                   ; 9.1                                                                                                                                                                                                     ; --                             ; --          ; --                           ;
; IP_TOOL_VERSION                                   ; 9.1                                                                                                                                                                                                     ; --                             ; --          ; --                           ;
; IP_TOOL_VERSION                                   ; 9.1                                                                                                                                                                                                     ; --                             ; --          ; --                           ;
; MAX_SCC_SIZE                                      ; 50                                                                                                                                                                                                      ; --                             ; --          ; --                           ;
; MISC_FILE                                         ; ../design_files/counter16.bsf                                                                                                                                                                           ; --                             ; --          ; --                           ;
; MISC_FILE                                         ; ../design_files/counter16.inc                                                                                                                                                                           ; --                             ; --          ; --                           ;
; MISC_FILE                                         ; ../design_files/pll_smal.bsf                                                                                                                                                                            ; --                             ; --          ; --                           ;
; MISC_FILE                                         ; ../design_files/pll_smal.inc                                                                                                                                                                            ; --                             ; --          ; --                           ;
; MISC_FILE                                         ; ../design_files/pll_smal.ppf                                                                                                                                                                            ; --                             ; --          ; --                           ;
; MISC_FILE                                         ; ../design_files/counter_show.bsf                                                                                                                                                                        ; --                             ; --          ; --                           ;
; MISC_FILE                                         ; ../design_files/counter_show.inc                                                                                                                                                                        ; --                             ; --          ; --                           ;
; MISC_FILE                                         ; ../design_files/and32.bsf                                                                                                                                                                               ; --                             ; --          ; --                           ;
; MISC_FILE                                         ; ../design_files/and32.inc                                                                                                                                                                               ; --                             ; --          ; --                           ;
; MISC_FILE                                         ; mux16_16.tdf                                                                                                                                                                                            ; --                             ; --          ; --                           ;
; MISC_FILE                                         ; mux16_16.bsf                                                                                                                                                                                            ; --                             ; --          ; --                           ;
; MISC_FILE                                         ; mux16_16.inc                                                                                                                                                                                            ; --                             ; --          ; --                           ;
; MISC_FILE                                         ; or16_line.tdf                                                                                                                                                                                           ; --                             ; --          ; --                           ;
; MISC_FILE                                         ; or16_line.bsf                                                                                                                                                                                           ; --                             ; --          ; --                           ;
; MISC_FILE                                         ; or16_line.inc                                                                                                                                                                                           ; --                             ; --          ; --                           ;
; MISC_FILE                                         ; mux4_line.tdf                                                                                                                                                                                           ; --                             ; --          ; --                           ;
; MISC_FILE                                         ; mux4_line.bsf                                                                                                                                                                                           ; --                             ; --          ; --                           ;
; MISC_FILE                                         ; mux4_line.inc                                                                                                                                                                                           ; --                             ; --          ; --                           ;
; MISC_FILE                                         ; mux4_16.tdf                                                                                                                                                                                             ; --                             ; --          ; --                           ;
; MISC_FILE                                         ; mux4_16.bsf                                                                                                                                                                                             ; --                             ; --          ; --                           ;
; MISC_FILE                                         ; mux4_16.inc                                                                                                                                                                                             ; --                             ; --          ; --                           ;
; MISC_FILE                                         ; C:/workspace/firmware/testbench_ADC125mhz/sigma_delta/sigma_delta.dpf                                                                                                                                   ; --                             ; --          ; --                           ;
; MISC_FILE                                         ; ADC_FIFO.tdf                                                                                                                                                                                            ; --                             ; --          ; --                           ;
; MISC_FILE                                         ; ADC_FIFO.bsf                                                                                                                                                                                            ; --                             ; --          ; --                           ;
; MISC_FILE                                         ; ADC_FIFO.inc                                                                                                                                                                                            ; --                             ; --          ; --                           ;
; MUX_RESTRUCTURE                                   ; Off                                                                                                                                                                                                     ; Auto                           ; --          ; --                           ;
; NUMBER_OF_PATHS_TO_REPORT                         ; 10000                                                                                                                                                                                                   ; 200                            ; --          ; --                           ;
; OPTIMIZE_HOLD_TIMING                              ; All Paths                                                                                                                                                                                               ; IO Paths and Minimum TPD Paths ; --          ; --                           ;
; OPTIMIZE_MULTI_CORNER_TIMING                      ; On                                                                                                                                                                                                      ; Off                            ; --          ; --                           ;
; PARTITION_COLOR                                   ; 2147039                                                                                                                                                                                                 ; --                             ; --          ; Top                          ;
; PARTITION_COLOR                                   ; 921185                                                                                                                                                                                                  ; --                             ; --          ; Basic_DAQ_Block_trigg:inst27 ;
; PARTITION_COLOR                                   ; 14611962                                                                                                                                                                                                ; --                             ; --          ; Basic_DAQ_Block_trigg:inst33 ;
; PARTITION_COLOR                                   ; 14613223                                                                                                                                                                                                ; --                             ; --          ; Basic_DAQ_Block_trigg:inst34 ;
; PARTITION_COLOR                                   ; 15596254                                                                                                                                                                                                ; --                             ; --          ; Basic_DAQ_Block_trigg:inst39 ;
; PARTITION_COLOR                                   ; 16445150                                                                                                                                                                                                ; --                             ; --          ; Basic_DAQ_Block_trigg:inst41 ;
; PARTITION_COLOR                                   ; 16441062                                                                                                                                                                                                ; --                             ; --          ; Basic_DAQ_Block_trigg:inst43 ;
; PARTITION_COLOR                                   ; 16244474                                                                                                                                                                                                ; --                             ; --          ; Basic_DAQ_Block_trigg:inst45 ;
; PARTITION_COLOR                                   ; 14606074                                                                                                                                                                                                ; --                             ; --          ; Basic_DAQ_Block_trigg:inst48 ;
; PARTITION_COLOR                                   ; 2352827                                                                                                                                                                                                 ; --                             ; --          ; Basic_DAQ_Block_trigg:inst49 ;
; PARTITION_COLOR                                   ; 2341842                                                                                                                                                                                                 ; --                             ; --          ; Basic_DAQ_Block_trigg:inst50 ;
; PARTITION_COLOR                                   ; 3717923                                                                                                                                                                                                 ; --                             ; --          ; Basic_DAQ_Block_trigg:inst51 ;
; PARTITION_COLOR                                   ; 12311331                                                                                                                                                                                                ; --                             ; --          ; Basic_DAQ_Block_trigg:inst52 ;
; PARTITION_COLOR                                   ; 12264237                                                                                                                                                                                                ; --                             ; --          ; Basic_DAQ_Block_trigg:inst53 ;
; PARTITION_COLOR                                   ; 8987579                                                                                                                                                                                                 ; --                             ; --          ; Basic_DAQ_Block_trigg:inst54 ;
; PARTITION_COLOR                                   ; 2302907                                                                                                                                                                                                 ; --                             ; --          ; Basic_DAQ_Block_trigg:inst55 ;
; PARTITION_COLOR                                   ; 6101260                                                                                                                                                                                                 ; --                             ; --          ; Basic_DAQ_Block_trigg:inst85 ;
; PARTITION_COLOR                                   ; 6360612                                                                                                                                                                                                 ; --                             ; --          ; dff32:inst10                 ;
; PARTITION_COLOR                                   ; 5639777                                                                                                                                                                                                 ; --                             ; --          ; dff32:inst11                 ;
; PARTITION_FITTER_PRESERVATION_LEVEL               ; PLACEMENT_AND_ROUTING                                                                                                                                                                                   ; --                             ; --          ; Top                          ;
; PARTITION_FITTER_PRESERVATION_LEVEL               ; PLACEMENT_AND_ROUTING                                                                                                                                                                                   ; --                             ; --          ; Basic_DAQ_Block_trigg:inst27 ;
; PARTITION_FITTER_PRESERVATION_LEVEL               ; PLACEMENT_AND_ROUTING                                                                                                                                                                                   ; --                             ; --          ; Basic_DAQ_Block_trigg:inst33 ;
; PARTITION_FITTER_PRESERVATION_LEVEL               ; PLACEMENT_AND_ROUTING                                                                                                                                                                                   ; --                             ; --          ; Basic_DAQ_Block_trigg:inst34 ;
; PARTITION_FITTER_PRESERVATION_LEVEL               ; PLACEMENT_AND_ROUTING                                                                                                                                                                                   ; --                             ; --          ; Basic_DAQ_Block_trigg:inst39 ;
; PARTITION_FITTER_PRESERVATION_LEVEL               ; PLACEMENT_AND_ROUTING                                                                                                                                                                                   ; --                             ; --          ; Basic_DAQ_Block_trigg:inst41 ;
; PARTITION_FITTER_PRESERVATION_LEVEL               ; PLACEMENT_AND_ROUTING                                                                                                                                                                                   ; --                             ; --          ; Basic_DAQ_Block_trigg:inst43 ;
; PARTITION_FITTER_PRESERVATION_LEVEL               ; PLACEMENT_AND_ROUTING                                                                                                                                                                                   ; --                             ; --          ; Basic_DAQ_Block_trigg:inst45 ;
; PARTITION_FITTER_PRESERVATION_LEVEL               ; PLACEMENT_AND_ROUTING                                                                                                                                                                                   ; --                             ; --          ; Basic_DAQ_Block_trigg:inst48 ;
; PARTITION_FITTER_PRESERVATION_LEVEL               ; PLACEMENT_AND_ROUTING                                                                                                                                                                                   ; --                             ; --          ; Basic_DAQ_Block_trigg:inst49 ;
; PARTITION_FITTER_PRESERVATION_LEVEL               ; PLACEMENT_AND_ROUTING                                                                                                                                                                                   ; --                             ; --          ; Basic_DAQ_Block_trigg:inst50 ;
; PARTITION_FITTER_PRESERVATION_LEVEL               ; PLACEMENT_AND_ROUTING                                                                                                                                                                                   ; --                             ; --          ; Basic_DAQ_Block_trigg:inst51 ;
; PARTITION_FITTER_PRESERVATION_LEVEL               ; PLACEMENT_AND_ROUTING                                                                                                                                                                                   ; --                             ; --          ; Basic_DAQ_Block_trigg:inst52 ;
; PARTITION_FITTER_PRESERVATION_LEVEL               ; PLACEMENT_AND_ROUTING                                                                                                                                                                                   ; --                             ; --          ; Basic_DAQ_Block_trigg:inst53 ;
; PARTITION_FITTER_PRESERVATION_LEVEL               ; PLACEMENT_AND_ROUTING                                                                                                                                                                                   ; --                             ; --          ; Basic_DAQ_Block_trigg:inst54 ;
; PARTITION_FITTER_PRESERVATION_LEVEL               ; PLACEMENT_AND_ROUTING                                                                                                                                                                                   ; --                             ; --          ; Basic_DAQ_Block_trigg:inst55 ;
; PARTITION_FITTER_PRESERVATION_LEVEL               ; PLACEMENT_AND_ROUTING                                                                                                                                                                                   ; --                             ; --          ; Basic_DAQ_Block_trigg:inst85 ;
; PARTITION_FITTER_PRESERVATION_LEVEL               ; PLACEMENT_AND_ROUTING                                                                                                                                                                                   ; --                             ; --          ; dff32:inst10                 ;
; PARTITION_FITTER_PRESERVATION_LEVEL               ; PLACEMENT_AND_ROUTING                                                                                                                                                                                   ; --                             ; --          ; dff32:inst11                 ;
; PARTITION_NETLIST_TYPE                            ; SOURCE                                                                                                                                                                                                  ; --                             ; --          ; Top                          ;
; PARTITION_NETLIST_TYPE                            ; STRICT_POST_FIT                                                                                                                                                                                         ; --                             ; --          ; Basic_DAQ_Block_trigg:inst27 ;
; PARTITION_NETLIST_TYPE                            ; STRICT_POST_FIT                                                                                                                                                                                         ; --                             ; --          ; Basic_DAQ_Block_trigg:inst33 ;
; PARTITION_NETLIST_TYPE                            ; STRICT_POST_FIT                                                                                                                                                                                         ; --                             ; --          ; Basic_DAQ_Block_trigg:inst34 ;
; PARTITION_NETLIST_TYPE                            ; STRICT_POST_FIT                                                                                                                                                                                         ; --                             ; --          ; Basic_DAQ_Block_trigg:inst39 ;
; PARTITION_NETLIST_TYPE                            ; STRICT_POST_FIT                                                                                                                                                                                         ; --                             ; --          ; Basic_DAQ_Block_trigg:inst41 ;
; PARTITION_NETLIST_TYPE                            ; STRICT_POST_FIT                                                                                                                                                                                         ; --                             ; --          ; Basic_DAQ_Block_trigg:inst43 ;
; PARTITION_NETLIST_TYPE                            ; STRICT_POST_FIT                                                                                                                                                                                         ; --                             ; --          ; Basic_DAQ_Block_trigg:inst45 ;
; PARTITION_NETLIST_TYPE                            ; STRICT_POST_FIT                                                                                                                                                                                         ; --                             ; --          ; Basic_DAQ_Block_trigg:inst48 ;
; PARTITION_NETLIST_TYPE                            ; STRICT_POST_FIT                                                                                                                                                                                         ; --                             ; --          ; Basic_DAQ_Block_trigg:inst49 ;
; PARTITION_NETLIST_TYPE                            ; STRICT_POST_FIT                                                                                                                                                                                         ; --                             ; --          ; Basic_DAQ_Block_trigg:inst50 ;
; PARTITION_NETLIST_TYPE                            ; STRICT_POST_FIT                                                                                                                                                                                         ; --                             ; --          ; Basic_DAQ_Block_trigg:inst51 ;
; PARTITION_NETLIST_TYPE                            ; STRICT_POST_FIT                                                                                                                                                                                         ; --                             ; --          ; Basic_DAQ_Block_trigg:inst52 ;
; PARTITION_NETLIST_TYPE                            ; STRICT_POST_FIT                                                                                                                                                                                         ; --                             ; --          ; Basic_DAQ_Block_trigg:inst53 ;
; PARTITION_NETLIST_TYPE                            ; STRICT_POST_FIT                                                                                                                                                                                         ; --                             ; --          ; Basic_DAQ_Block_trigg:inst54 ;
; PARTITION_NETLIST_TYPE                            ; STRICT_POST_FIT                                                                                                                                                                                         ; --                             ; --          ; Basic_DAQ_Block_trigg:inst55 ;
; PARTITION_NETLIST_TYPE                            ; STRICT_POST_FIT                                                                                                                                                                                         ; --                             ; --          ; Basic_DAQ_Block_trigg:inst85 ;
; PARTITION_NETLIST_TYPE                            ; STRICT_POST_FIT                                                                                                                                                                                         ; --                             ; --          ; dff32:inst10                 ;
; PARTITION_NETLIST_TYPE                            ; STRICT_POST_FIT                                                                                                                                                                                         ; --                             ; --          ; dff32:inst11                 ;
; PHYSICAL_SYNTHESIS_ASYNCHRONOUS_SIGNAL_PIPELINING ; On                                                                                                                                                                                                      ; Off                            ; --          ; --                           ;
; PHYSICAL_SYNTHESIS_COMBO_LOGIC                    ; On                                                                                                                                                                                                      ; Off                            ; --          ; --                           ;
; PHYSICAL_SYNTHESIS_COMBO_LOGIC_FOR_AREA           ; On                                                                                                                                                                                                      ; Off                            ; --          ; --                           ;
; PHYSICAL_SYNTHESIS_EFFORT                         ; Extra                                                                                                                                                                                                   ; Normal                         ; --          ; --                           ;
; PHYSICAL_SYNTHESIS_MAP_LOGIC_TO_MEMORY_FOR_AREA   ; On                                                                                                                                                                                                      ; Off                            ; --          ; --                           ;
; PHYSICAL_SYNTHESIS_REGISTER_DUPLICATION           ; On                                                                                                                                                                                                      ; Off                            ; --          ; --                           ;
; PHYSICAL_SYNTHESIS_REGISTER_RETIMING              ; On                                                                                                                                                                                                      ; Off                            ; --          ; --                           ;
; PLACEMENT_EFFORT_MULTIPLIER                       ; 4.0                                                                                                                                                                                                     ; 1.0                            ; --          ; --                           ;
; POWER_DEFAULT_INPUT_IO_TOGGLE_RATE                ; 100%                                                                                                                                                                                                    ; 12.5%                          ; --          ; --                           ;
; POWER_DEFAULT_TOGGLE_RATE                         ; 100%                                                                                                                                                                                                    ; 12.5%                          ; --          ; --                           ;
; POWER_INPUT_FILE_NAME                             ; 14_BIT_DAQ_3.saf                                                                                                                                                                                        ; --                             ; --          ; 14_bit_daq_3.saf             ;
; POWER_INPUT_FILE_NAME                             ; sigma_delta.vcd                                                                                                                                                                                         ; --                             ; --          ; sigma_delta.vcd              ;
; POWER_USE_INPUT_FILES                             ; On                                                                                                                                                                                                      ; Off                            ; --          ; --                           ;
; POWER_USE_PVA                                     ; Off                                                                                                                                                                                                     ; On                             ; --          ; --                           ;
; RESET_CAT                                         ; Off                                                                                                                                                                                                     ; On                             ; --          ; --                           ;
; RESET_RULE_COMB_ASYNCH_RESET                      ; Off                                                                                                                                                                                                     ; On                             ; --          ; --                           ;
; RESET_RULE_IMSYNCH_ASYNCH_DOMAIN                  ; Off                                                                                                                                                                                                     ; On                             ; --          ; --                           ;
; RESET_RULE_IMSYNCH_EXRESET                        ; Off                                                                                                                                                                                                     ; On                             ; --          ; --                           ;
; RESET_RULE_INPINS_RESETNET                        ; Off                                                                                                                                                                                                     ; --                             ; --          ; --                           ;
; RESET_RULE_UNSYNCH_ASYNCH_DOMAIN                  ; Off                                                                                                                                                                                                     ; On                             ; --          ; --                           ;
; RESET_RULE_UNSYNCH_EXRESET                        ; Off                                                                                                                                                                                                     ; On                             ; --          ; --                           ;
; ROUTER_TIMING_OPTIMIZATION_LEVEL                  ; MAXIMUM                                                                                                                                                                                                 ; Normal                         ; --          ; --                           ;
; SAVE_DISK_SPACE                                   ; Off                                                                                                                                                                                                     ; On                             ; --          ; --                           ;
; SEARCH_PATH                                       ; ./../design_files                                                                                                                                                                                       ; --                             ; --          ; --                           ;
; SEARCH_PATH                                       ; D:\altera\megacore\61                                                                                                                                                                                   ; --                             ; --          ; --                           ;
; SIGNALRACE_CAT                                    ; Off                                                                                                                                                                                                     ; On                             ; --          ; --                           ;
; SIGNALRACE_RULE_TRISTATE                          ; Off                                                                                                                                                                                                     ; On                             ; --          ; --                           ;
; SLD_NODE_CREATOR_ID                               ; 110                                                                                                                                                                                                     ; --                             ; --          ; auto_signaltap_0             ;
; SLD_NODE_ENTITY_NAME                              ; sld_signaltap                                                                                                                                                                                           ; --                             ; --          ; auto_signaltap_0             ;
; SLD_NODE_PARAMETER_ASSIGNMENT                     ; SLD_NODE_INFO=805334528                                                                                                                                                                                 ; --                             ; --          ; auto_signaltap_0             ;
; SLD_NODE_PARAMETER_ASSIGNMENT                     ; SLD_POWER_UP_TRIGGER=0                                                                                                                                                                                  ; --                             ; --          ; auto_signaltap_0             ;
; SLD_NODE_PARAMETER_ASSIGNMENT                     ; SLD_STORAGE_QUALIFIER_INVERSION_MASK_LENGTH=0                                                                                                                                                           ; --                             ; --          ; auto_signaltap_0             ;
; SLD_NODE_PARAMETER_ASSIGNMENT                     ; SLD_ATTRIBUTE_MEM_MODE=OFF                                                                                                                                                                              ; --                             ; --          ; auto_signaltap_0             ;
; SLD_NODE_PARAMETER_ASSIGNMENT                     ; SLD_STATE_FLOW_USE_GENERATED=0                                                                                                                                                                          ; --                             ; --          ; auto_signaltap_0             ;
; SLD_NODE_PARAMETER_ASSIGNMENT                     ; SLD_STATE_BITS=11                                                                                                                                                                                       ; --                             ; --          ; auto_signaltap_0             ;
; SLD_NODE_PARAMETER_ASSIGNMENT                     ; SLD_BUFFER_FULL_STOP=1                                                                                                                                                                                  ; --                             ; --          ; auto_signaltap_0             ;
; SLD_NODE_PARAMETER_ASSIGNMENT                     ; SLD_CURRENT_RESOURCE_WIDTH=1                                                                                                                                                                            ; --                             ; --          ; auto_signaltap_0             ;
; SLD_NODE_PARAMETER_ASSIGNMENT                     ; SLD_TRIGGER_LEVEL=1                                                                                                                                                                                     ; --                             ; --          ; auto_signaltap_0             ;
; SLD_NODE_PARAMETER_ASSIGNMENT                     ; SLD_ADVANCED_TRIGGER_ENTITY=basic,1,                                                                                                                                                                    ; --                             ; --          ; auto_signaltap_0             ;
; SLD_NODE_PARAMETER_ASSIGNMENT                     ; SLD_TRIGGER_LEVEL_PIPELINE=1                                                                                                                                                                            ; --                             ; --          ; auto_signaltap_0             ;
; SLD_NODE_PARAMETER_ASSIGNMENT                     ; SLD_ENABLE_ADVANCED_TRIGGER=0                                                                                                                                                                           ; --                             ; --          ; auto_signaltap_0             ;
; SLD_NODE_PARAMETER_ASSIGNMENT                     ; SLD_RAM_BLOCK_TYPE=M4K                                                                                                                                                                                  ; --                             ; --          ; auto_signaltap_0             ;
; SLD_NODE_PARAMETER_ASSIGNMENT                     ; SLD_DATA_BITS=53                                                                                                                                                                                        ; --                             ; --          ; auto_signaltap_0             ;
; SLD_NODE_PARAMETER_ASSIGNMENT                     ; SLD_TRIGGER_BITS=53                                                                                                                                                                                     ; --                             ; --          ; auto_signaltap_0             ;
; SLD_NODE_PARAMETER_ASSIGNMENT                     ; SLD_INVERSION_MASK=000000000000000000000000000000000000000000000000000000000000000000000000000000000000000000000000000000000000000000000000000000000000000000000000000000000000000000000000000000000000 ; --                             ; --          ; auto_signaltap_0             ;
; SLD_NODE_PARAMETER_ASSIGNMENT                     ; SLD_INVERSION_MASK_LENGTH=180                                                                                                                                                                           ; --                             ; --          ; auto_signaltap_0             ;
; SLD_NODE_PARAMETER_ASSIGNMENT                     ; SLD_SEGMENT_SIZE=128                                                                                                                                                                                    ; --                             ; --          ; auto_signaltap_0             ;
; SLD_NODE_PARAMETER_ASSIGNMENT                     ; SLD_NODE_CRC_LOWORD=37589                                                                                                                                                                               ; --                             ; --          ; auto_signaltap_0             ;
; SLD_NODE_PARAMETER_ASSIGNMENT                     ; SLD_NODE_CRC_HIWORD=49035                                                                                                                                                                               ; --                             ; --          ; auto_signaltap_0             ;
; SLD_NODE_PARAMETER_ASSIGNMENT                     ; SLD_SAMPLE_DEPTH=128                                                                                                                                                                                    ; --                             ; --          ; auto_signaltap_0             ;
; SLD_NODE_PARAMETER_ASSIGNMENT                     ; SLD_TRIGGER_IN_ENABLED=0                                                                                                                                                                                ; --                             ; --          ; auto_signaltap_0             ;
; SMART_RECOMPILE                                   ; On                                                                                                                                                                                                      ; Off                            ; --          ; --                           ;
; STATE_MACHINE_PROCESSING                          ; One-Hot                                                                                                                                                                                                 ; Auto                           ; --          ; --                           ;
; STRATIXII_OPTIMIZATION_TECHNIQUE                  ; Speed                                                                                                                                                                                                   ; Balanced                       ; --          ; --                           ;
; STRATIX_OPTIMIZATION_TECHNIQUE                    ; Speed                                                                                                                                                                                                   ; Balanced                       ; --          ; --                           ;
; USE_SIGNALTAP_FILE                                ; ped_range_v0.stp                                                                                                                                                                                        ; --                             ; --          ; --                           ;
; VHDL_SHOW_LMF_MAPPING_MESSAGES                    ; Off                                                                                                                                                                                                     ; --                             ; --          ; --                           ;
+---------------------------------------------------+---------------------------------------------------------------------------------------------------------------------------------------------------------------------------------------------------------+--------------------------------+-------------+------------------------------+


+-----------------------------------------------------------------------------------------------------------------------------+
; Flow Elapsed Time                                                                                                           ;
+-------------------------+--------------+-------------------------+---------------------+------------------------------------+
; Module Name             ; Elapsed Time ; Average Processors Used ; Peak Virtual Memory ; Total CPU Time (on all processors) ;
+-------------------------+--------------+-------------------------+---------------------+------------------------------------+
; Analysis & Synthesis    ; 00:00:16     ; 1.0                     ; 4564 MB             ; 00:00:16                           ;
; Fitter                  ; 00:00:48     ; 2.6                     ; 4785 MB             ; 00:01:04                           ;
; Assembler               ; 00:00:03     ; 1.0                     ; 4572 MB             ; 00:00:03                           ;
; Classic Timing Analyzer ; 00:00:02     ; 1.0                     ; 4422 MB             ; 00:00:03                           ;
; Design Assistant        ; 00:00:11     ; 1.0                     ; 4466 MB             ; 00:00:11                           ;
; EDA Netlist Writer      ; 00:00:01     ; 1.0                     ; 4440 MB             ; 00:00:01                           ;
; Total                   ; 00:01:21     ; --                      ; --                  ; 00:01:38                           ;
+-------------------------+--------------+-------------------------+---------------------+------------------------------------+


+------------------------------------------------------------------------------------------+
; Flow OS Summary                                                                          ;
+-------------------------+------------------+---------------+------------+----------------+
; Module Name             ; Machine Hostname ; OS Name       ; OS Version ; Processor type ;
+-------------------------+------------------+---------------+------------+----------------+
; Analysis & Synthesis    ; doewah8          ; Windows Vista ; 6.2        ; x86_64         ;
; Fitter                  ; doewah8          ; Windows Vista ; 6.2        ; x86_64         ;
; Assembler               ; doewah8          ; Windows Vista ; 6.2        ; x86_64         ;
; Classic Timing Analyzer ; doewah8          ; Windows Vista ; 6.2        ; x86_64         ;
; Design Assistant        ; doewah8          ; Windows Vista ; 6.2        ; x86_64         ;
; EDA Netlist Writer      ; doewah8          ; Windows Vista ; 6.2        ; x86_64         ;
+-------------------------+------------------+---------------+------------+----------------+


------------
; Flow Log ;
------------
quartus_map --read_settings_files=on --write_settings_files=off sigma_delta -c sigma_delta
quartus_fit --read_settings_files=off --write_settings_files=off sigma_delta -c sigma_delta
quartus_asm --read_settings_files=off --write_settings_files=off sigma_delta -c sigma_delta
quartus_tan --read_settings_files=off --write_settings_files=off sigma_delta -c sigma_delta --timing_analysis_only
quartus_drc --read_settings_files=off --write_settings_files=off sigma_delta -c sigma_delta
quartus_eda --read_settings_files=off --write_settings_files=off sigma_delta -c sigma_delta



